20

6 6
1
h 3 3 w
131 151

13 10
15
r 9 9 w
t 5 6 w
h 9 0 w
r 6 6 s
r 12 6 e
f 9 1 s
h 12 1 n
t 10 6 n
h 6 2 e
h 8 7 n
f 8 9 e
t 1 0 s
f 4 1 n
h 11 8 n
h 3 5 e
1921 71

14 11
2
t 8 10 n
f 2 7 e
977 93

6 2
9
t 5 1 e
f 0 1 s
r 2 1 e
t 0 0 s
f 5 0 e
t 4 0 n
f 3 0 w
t 3 1 w
r 1 1 n
115 182

7 1
1
r 5 0 n
51 20

12 9
4
f 6 8 w
h 8 8 w
r 2 1 n
f 1 8 e
785 134

7 12
13
f 5 4 w
h 6 10 w
f 2 6 w
f 6 3 n
h 4 10 e
h 4 9 e
r 1 2 e
r 0 6 e
h 1 11 e
h 1 8 n
h 5 11 s
f 5 3 n
r 3 11 e
1951 109

8 12
7
t 7 0 w
r 1 6 e
f 6 2 w
h 4 6 n
t 5 9 s
r 2 2 e
r 4 3 s
1470 24

9 5
13
h 3 1 e
r 4 0 w
r 5 1 w
f 5 0 e
r 2 2 s
f 2 4 s
f 1 1 s
f 1 2 w
t 1 4 w
f 5 3 n
t 7 2 s
h 4 3 n
r 8 4 w
128 30

13 7
5
h 1 2 e
t 9 3 n
t 4 3 w
f 12 3 w
r 12 5 e
532 115

3 5
7
t 0 1 n
r 2 1 w
t 1 0 n
t 0 2 n
f 1 4 e
h 0 4 s
r 0 0 n
1459 59

14 1
13
t 3 0 e
r 10 0 e
r 6 0 w
t 8 0 w
t 13 0 w
f 1 0 n
h 5 0 n
f 7 0 n
h 2 0 e
f 4 0 e
h 9 0 e
f 12 0 e
h 11 0 n
1542 157

4 13
4
r 0 4 s
t 2 2 s
t 1 7 e
t 0 7 s
1121 26

15 10
12
h 13 7 e
f 5 5 w
f 0 9 w
t 5 3 n
t 2 2 e
r 11 8 w
h 3 9 e
f 7 3 e
h 1 2 w
r 6 4 w
h 14 6 e
r 8 7 e
581 164

3 15
7
r 2 1 w
h 1 7 s
r 0 4 w
t 1 5 s
h 1 1 s
f 2 9 w
t 0 11 e
197 29

6 5
7
t 0 2 e
f 5 1 w
t 2 3 w
f 5 4 e
r 2 4 e
r 4 1 n
h 4 4 s
515 128

7 4
6
f 4 1 s
f 3 0 s
t 6 1 e
r 3 3 s
h 0 1 s
h 1 2 s
1127 199

14 7
9
f 3 2 s
r 0 4 e
h 13 4 w
f 11 4 e
r 12 4 n
t 8 6 s
h 5 3 w
t 9 3 e
f 8 0 s
1671 67

14 2
7
t 3 0 e
r 13 1 s
h 9 0 e
r 4 1 n
r 11 1 n
r 1 0 w
t 10 1 w
495 105

6 8
2
t 1 3 w
r 2 4 s
630 92
